{
  "urn" : "local:alessio.bulckaen:im.countrysupport.southafrica:im-nca-southafrica_gadm_4326_western.cape",
  "version" : "0.0.1",
  "adapterType" : "wfs",
  "localPath" : "im.countrysupport.southafrica/resources/im-nca-southafrica_gadm_4326_western.cape",
  "geometry" : "#s2(1){bbox=[17.7585 24.2224 -34.8351 -30.4303],proj=EPSG:4326}",
  "projectName" : "im.countrysupport.southafrica",
  "localName" : "im-nca-southafrica_gadm_4326_western.cape",
  "type" : "OBJECT",
  "resourceTimestamp" : 1668104436072,
  "metadata" : {
    "im:keywords" : "features,gadm_4326_western _cape",
    "dc:title" : "gadm_4326_western _cape"
  },
  "parameters" : {
    "serviceUrl" : "https://integratedmodelling.org/aux-geoserver/im-nca-southafrica/ows",
    "wfsVersion" : "1.0.0",
    "wfsIdentifier" : "im-nca-southafrica:gadm_4326_western__cape"
  },
  "localPaths" : [ ],
  "history" : [ ],
  "notifications" : [ ],
  "attributes" : [ {
    "name" : "gid_0",
    "type" : "TEXT",
    "key" : false,
    "optional" : true,
    "exampleValue" : null,
    "index" : 0
  }, {
    "name" : "name_0",
    "type" : "TEXT",
    "key" : false,
    "optional" : true,
    "exampleValue" : null,
    "index" : 0
  }, {
    "name" : "gid_1",
    "type" : "TEXT",
    "key" : false,
    "optional" : true,
    "exampleValue" : null,
    "index" : 0
  }, {
    "name" : "name_1",
    "type" : "TEXT",
    "key" : false,
    "optional" : true,
    "exampleValue" : null,
    "index" : 0
  }, {
    "name" : "varname_1",
    "type" : "TEXT",
    "key" : false,
    "optional" : true,
    "exampleValue" : null,
    "index" : 0
  }, {
    "name" : "nl_name_1",
    "type" : "TEXT",
    "key" : false,
    "optional" : true,
    "exampleValue" : null,
    "index" : 0
  }, {
    "name" : "type_1",
    "type" : "TEXT",
    "key" : false,
    "optional" : true,
    "exampleValue" : null,
    "index" : 0
  }, {
    "name" : "engtype_1",
    "type" : "TEXT",
    "key" : false,
    "optional" : true,
    "exampleValue" : null,
    "index" : 0
  }, {
    "name" : "cc_1",
    "type" : "TEXT",
    "key" : false,
    "optional" : true,
    "exampleValue" : null,
    "index" : 0
  }, {
    "name" : "hasc_1",
    "type" : "TEXT",
    "key" : false,
    "optional" : true,
    "exampleValue" : null,
    "index" : 0
  } ],
  "spatialExtent" : {
    "east" : 24.2224,
    "west" : 17.7585,
    "north" : -30.4303,
    "south" : -34.8351,
    "gridResolution" : null,
    "gridUnit" : null
  },
  "dependencies" : null,
  "outputs" : null,
  "categorizables" : [ ],
  "codelists" : [ ],
  "availability" : null,
  "exportFormats" : { }
}