{
  "urn" : "local:rubencc:im.countrysupport.southafrica:im-nca-southafrica_forests_vectorized_4326_fixed",
  "version" : "0.0.1",
  "adapterType" : "wfs",
  "localPath" : "im.countrysupport.southafrica/resources/im-nca-southafrica_forests_vectorized_4326_fixed",
  "geometry" : "s1(1){bbox=[16.4426740665441 32.8801093176994 -34.7698784183567 -26.2902260428801],proj=EPSG:4326}",
  "projectName" : "im.countrysupport.southafrica",
  "localName" : "im-nca-southafrica_forests_vectorized_4326_fixed",
  "type" : "OBJECT",
  "resourceTimestamp" : 1651243791178,
  "metadata" : {
    "im:keywords" : "forests_vectorized_4326_fixed,features",
    "dc:comment" : "",
    "im:notes" : "",
    "dc:title" : "forests_vectorized_4326_fixed",
    "dc:url" : "",
    "dc:creator" : "",
    "im:thematic-area" : "",
    "dc:originator" : "",
    "im:geographic-area" : "",
    "dc:source" : ""
  },
  "parameters" : {
    "serviceUrl" : "http://192.168.250.122:8600/geoserver/ows",
    "wfsVersion" : "1.0.0",
    "wfsIdentifier" : "im-nca-southafrica:forests_vectorized_4326_fixed"
  },
  "localPaths" : [ ],
  "history" : [ ],
  "notifications" : [ ],
  "attributes" : [ {
    "name" : "id",
    "type" : "NUMBER",
    "key" : false,
    "optional" : true,
    "exampleValue" : null,
    "index" : 0
  }, {
    "name" : "gridcode",
    "type" : "NUMBER",
    "key" : false,
    "optional" : true,
    "exampleValue" : null,
    "index" : 0
  }, {
    "name" : "biome",
    "type" : "TEXT",
    "key" : false,
    "optional" : true,
    "exampleValue" : null,
    "index" : 0
  } ],
  "spatialExtent" : {
    "east" : 32.8801093176994,
    "west" : 16.4426740665441,
    "north" : -26.2902260428801,
    "south" : -34.7698784183567,
    "gridResolution" : null,
    "gridUnit" : null
  },
  "dependencies" : null,
  "outputs" : null,
  "categorizables" : [ ],
  "codelists" : [ ],
  "availability" : null,
  "exportFormats" : { }
}