{
  "urn" : "local:alessio.bulckaen:im.countrysupport.southafrica:im-nca-sa.sa_nlc_2020_geo",
  "version" : "0.0.1",
  "adapterType" : "wcs",
  "localPath" : "im.countrysupport.southafrica/resources/im-nca-sa.sa_nlc_2020_geo",
  "geometry" : "S2(92926,71247){bbox=[16.350236486259412 33.04578536773434 -34.92470161599873 -22.12406814340922],proj=EPSG:4326}",
  "projectName" : "im.countrysupport.southafrica",
  "localName" : "im-nca-sa.sa_nlc_2020_geo",
  "type" : "NUMBER",
  "resourceTimestamp" : 1641309832562,
  "metadata" : { },
  "parameters" : {
    "wcsIdentifier" : "im-nca-sa__sa_nlc_2020_geo",
    "transform" : "",
    "serviceUrl" : "http://192.168.250.122:8600/geoserver/im-nca-sa/wcs",
    "wcsVersion" : "2.0.1"
  },
  "localPaths" : [ ],
  "history" : [ ],
  "notifications" : [ ],
  "attributes" : [ ],
  "spatialExtent" : {
    "east" : 33.04578536773434,
    "west" : 16.350236486259412,
    "north" : -22.12406814340922,
    "south" : -34.92470161599873,
    "gridResolution" : null,
    "gridUnit" : null
  },
  "dependencies" : null,
  "outputs" : null,
  "categorizables" : [ ],
  "codelists" : [ ],
  "availability" : null,
  "exportFormats" : { }
}