{
  "urn" : "local:rubencc:im.countrysupport.southafrica:im-nca-southafrica_vegid_1",
  "version" : "0.0.1",
  "adapterType" : "wfs",
  "localPath" : "im.countrysupport.southafrica/resources/im-nca-southafrica_vegid_1",
  "geometry" : "#s2(1){bbox=[19.4258518231158 23.0590438844403 -30.4037627919275 -28.4343089805842],proj=EPSG:4326}",
  "projectName" : "im.countrysupport.southafrica",
  "localName" : "im-nca-southafrica_vegid_1",
  "type" : "OBJECT",
  "resourceTimestamp" : 1652360518958,
  "metadata" : {
    "im:keywords" : "vegid_1,features",
    "dc:title" : "vegid_1"
  },
  "parameters" : {
    "serviceUrl" : "http://192.168.250.122:8600/geoserver/im-nca-southafrica/ows",
    "wfsVersion" : "1.0.0",
    "wfsIdentifier" : "im-nca-southafrica:vegid_1"
  },
  "localPaths" : [ ],
  "history" : [ ],
  "notifications" : [ ],
  "attributes" : [ {
    "name" : "biome_18",
    "type" : "TEXT",
    "key" : false,
    "optional" : true,
    "exampleValue" : null,
    "index" : 0
  }, {
    "name" : "biomeid_18",
    "type" : "NUMBER",
    "key" : false,
    "optional" : true,
    "exampleValue" : null,
    "index" : 0
  }, {
    "name" : "shape_leng",
    "type" : "NUMBER",
    "key" : false,
    "optional" : true,
    "exampleValue" : null,
    "index" : 0
  }, {
    "name" : "shape_area",
    "type" : "NUMBER",
    "key" : false,
    "optional" : true,
    "exampleValue" : null,
    "index" : 0
  }, {
    "name" : "vegid",
    "type" : "NUMBER",
    "key" : false,
    "optional" : true,
    "exampleValue" : null,
    "index" : 0
  } ],
  "spatialExtent" : {
    "east" : 23.0590438844403,
    "west" : 19.4258518231158,
    "north" : -28.4343089805842,
    "south" : -30.4037627919275,
    "gridResolution" : null,
    "gridUnit" : null
  },
  "dependencies" : null,
  "outputs" : null,
  "categorizables" : [ ],
  "codelists" : [ ],
  "availability" : null,
  "exportFormats" : { }
}